Chocolate Chip Cookie Analysis
…
The head of the dataset reveals that the Text variable is redundant; the information in this column is broken out into a more usable format in the Ingredient, Quantity, and Unit variables.

This means that the only columns necessary for our analysis are recipe_index, quantity, unit, ingredient, and rating.

# select columns for analysis
cookie_analysis <- cookie_analysis |> 
  select(recipe_index, quantity, unit, ingredient, rating)

To prepare the dataset for flour-fat-sugar ratio analysis, ingredients are viewed and categorized:

# view unique ingredients
cookie_analysis |> 
  distinct(ingredient)

# A tibble: 68 × 1
   ingredient       
   <chr>            
 1 all purpose flour
 2 almond extract   
 3 almonds          
 4 applesauce       
 5 baking powder    
 6 baking soda      
 7 bourbon          
 8 bread flour      
 9 brown rice flour 
10 butter           
# ℹ 58 more rows
…
Then, ingredient categorized as “unknown” are reviewed to evaluate whether any additional values should be categorized as flour, fat, or sugar:

# view ingredients that were categorized as "unknown"
ratio_analysis_incl_outliers |> 
  filter(category == "unknown") |> 
  distinct(ingredient)

# A tibble: 50 × 1
   ingredient     
   <chr>          
 1 almond extract 
 2 almonds        
 3 applesauce     
 4 baking powder  
 5 baking soda    
 6 bourbon        
 7 cake mix       
 8 cinnamon       
 9 coconut        
10 coconut extract
# ℹ 40 more rows
…
# merge parts by category with ratings
ratio_analysis_incl_outliers <- inner_join(parts_by_category, rating_by_recipe, by="recipe_index")

# view tibble
ratio_analysis_incl_outliers

# A tibble: 92 × 5
# Groups:   recipe_index [92]
   recipe_index parts_flour parts_fat parts_sugar rating
   <chr>              <dbl>     <dbl>       <dbl>  <dbl>
 1 AR_1                   3      1           2      0.92
 2 AR_10                  3      1.14        1.71   0.91
 3 AR_101                 3      2           4.12   0.6 
 4 AR_102                 3      1.2         1.2    0.94
 5 AR_103                 3      1.2         1.2    0.88
 6 AR_107                 3      0.67        2      0.93
 7 AR_108                 3      2           3      0.87
 8 AR_109                 3      1.5         1.5    0.87
 9 AR_11                  3      1.2         1.8    0.9 
10 AR_110                 3      1.5         1.5    0.87
# ℹ 82 more rows
…
